{
    "key": "group_5ac22c9630927",
    "title": "Specials",
    "fields": [
        {
            "key": "field_5ac22cadbddf8",
            "label": "Content",
            "name": "special_content",
            "type": "textarea",
            "instructions": "",
            "required": 0,
            "conditional_logic": 0,
            "wrapper": {
                "width": "",
                "class": "",
                "id": ""
            },
            "default_value": "",
            "placeholder": "",
            "maxlength": "",
            "rows": "",
            "new_lines": ""
        },
        {
            "key": "field_5ac22cdc8b5c2",
            "label": "Thumbnail",
            "name": "image",
            "type": "image",
            "instructions": "",
            "required": 0,
            "conditional_logic": 0,
            "wrapper": {
                "width": "33",
                "class": "",
                "id": ""
            },
            "return_format": "array",
            "preview_size": "thumbnail",
            "library": "all",
            "min_width": "",
            "min_height": "",
            "min_size": "",
            "max_width": "",
            "max_height": "",
            "max_size": "",
            "mime_types": ""
        },
        {
            "key": "field_5af313a2d2e9a",
            "label": "Price",
            "name": "price",
            "type": "text",
            "instructions": "",
            "required": 0,
            "conditional_logic": 0,
            "wrapper": {
                "width": "33",
                "class": "",
                "id": ""
            },
            "default_value": "",
            "placeholder": "",
            "prepend": "",
            "append": "",
            "maxlength": ""
        },
        {
            "key": "field_5af31b29cbb34",
            "label": "Start and End Time",
            "name": "start_and_end_time",
            "type": "group",
            "instructions": "",
            "required": 0,
            "conditional_logic": 0,
            "wrapper": {
                "width": "33",
                "class": "",
                "id": ""
            },
            "layout": "block",
            "sub_fields": [
                {
                    "key": "field_5af31b5fcbb35",
                    "label": "Enter Start\/End Date Time",
                    "name": "enter_startend_date_time",
                    "type": "radio",
                    "instructions": "Do you want to add a start \/ end  date and time for this special?",
                    "required": 0,
                    "conditional_logic": 0,
                    "wrapper": {
                        "width": "",
                        "class": "",
                        "id": ""
                    },
                    "choices": {
                        "yes": "Yes",
                        "no": "No",
                        "allday": "All Day"
                    },
                    "allow_null": 0,
                    "other_choice": 0,
                    "save_other_choice": 0,
                    "default_value": "no",
                    "layout": "vertical",
                    "return_format": "value"
                },
                {
                    "key": "field_5af31374d2e99",
                    "label": "Date Time Start",
                    "name": "date_time_start",
                    "type": "date_time_picker",
                    "instructions": "",
                    "required": 0,
                    "conditional_logic": [
                        [
                            {
                                "field": "field_5af31b5fcbb35",
                                "operator": "==",
                                "value": "yes"
                            }
                        ]
                    ],
                    "wrapper": {
                        "width": "50",
                        "class": "",
                        "id": ""
                    },
                    "display_format": "m\/d\/Y g:i a",
                    "return_format": "m\/d\/Y g:i a",
                    "first_day": 0
                },
                {
                    "key": "field_5af31b017fd39",
                    "label": "Date Time End",
                    "name": "date_time_end",
                    "type": "date_time_picker",
                    "instructions": "",
                    "required": 0,
                    "conditional_logic": [
                        [
                            {
                                "field": "field_5af31b5fcbb35",
                                "operator": "==",
                                "value": "yes"
                            }
                        ]
                    ],
                    "wrapper": {
                        "width": "50",
                        "class": "",
                        "id": ""
                    },
                    "display_format": "m\/d\/Y g:i a",
                    "return_format": "m\/d\/Y g:i a",
                    "first_day": 0
                },
                {
                    "key": "field_5af31dda6500a",
                    "label": "All Day Date",
                    "name": "all_day_date",
                    "type": "date_picker",
                    "instructions": "",
                    "required": 0,
                    "conditional_logic": [
                        [
                            {
                                "field": "field_5af31b5fcbb35",
                                "operator": "==",
                                "value": "allday"
                            }
                        ]
                    ],
                    "wrapper": {
                        "width": "",
                        "class": "",
                        "id": ""
                    },
                    "display_format": "m\/d\/Y",
                    "return_format": "m\/d\/Y",
                    "first_day": 0
                }
            ]
        },
        {
            "key": "field_5af3154a74259",
            "label": "Add Link Button",
            "name": "add_link_button",
            "type": "radio",
            "instructions": "Do you want to add a button that links to an internal page or another website?",
            "required": 0,
            "conditional_logic": 0,
            "wrapper": {
                "width": "50",
                "class": "",
                "id": ""
            },
            "choices": {
                "yes": "Yes",
                "no": "No"
            },
            "allow_null": 0,
            "other_choice": 0,
            "save_other_choice": 0,
            "default_value": "no",
            "layout": "vertical",
            "return_format": "value"
        },
        {
            "key": "field_5af344cf242b9",
            "label": "Link Button",
            "name": "link_button",
            "type": "link",
            "instructions": "",
            "required": 0,
            "conditional_logic": [
                [
                    {
                        "field": "field_5af3154a74259",
                        "operator": "==",
                        "value": "yes"
                    }
                ]
            ],
            "wrapper": {
                "width": "50",
                "class": "",
                "id": ""
            },
            "return_format": "array"
        }
    ],
    "location": [
        [
            {
                "param": "post_type",
                "operator": "==",
                "value": "specials"
            }
        ]
    ],
    "menu_order": 0,
    "position": "normal",
    "style": "seamless",
    "label_placement": "top",
    "instruction_placement": "label",
    "hide_on_screen": [
        "permalink",
        "the_content",
        "excerpt",
        "custom_fields",
        "discussion",
        "comments",
        "slug",
        "author",
        "format",
        "page_attributes",
        "featured_image",
        "categories",
        "tags",
        "send-trackbacks"
    ],
    "active": 1,
    "description": "",
    "modified": 1525970133
}